<?xml version="1.0" encoding="UTF-8"?>
<drawing version="7">
    <attr value="spartan3e" name="DeviceFamilyName">
        <trait delete="all:0" />
        <trait editname="all:0" />
        <trait edittrait="all:0" />
    </attr>
    <netlist>
        <signal name="output1" />
        <signal name="XLXN_6" />
        <signal name="input1" />
        <signal name="input2" />
        <port polarity="Output" name="output1" />
        <port polarity="Input" name="input1" />
        <port polarity="Input" name="input2" />
        <blockdef name="or2">
            <timestamp>2000-1-1T10:10:10</timestamp>
            <line x2="64" y1="-64" y2="-64" x1="0" />
            <line x2="64" y1="-128" y2="-128" x1="0" />
            <line x2="192" y1="-96" y2="-96" x1="256" />
            <arc ex="192" ey="-96" sx="112" sy="-48" r="88" cx="116" cy="-136" />
            <arc ex="48" ey="-144" sx="48" sy="-48" r="56" cx="16" cy="-96" />
            <line x2="48" y1="-144" y2="-144" x1="112" />
            <arc ex="112" ey="-144" sx="192" sy="-96" r="88" cx="116" cy="-56" />
            <line x2="48" y1="-48" y2="-48" x1="112" />
        </blockdef>
        <blockdef name="and2">
            <timestamp>2000-1-1T10:10:10</timestamp>
            <line x2="64" y1="-64" y2="-64" x1="0" />
            <line x2="64" y1="-128" y2="-128" x1="0" />
            <line x2="192" y1="-96" y2="-96" x1="256" />
            <arc ex="144" ey="-144" sx="144" sy="-48" r="48" cx="144" cy="-96" />
            <line x2="64" y1="-48" y2="-48" x1="144" />
            <line x2="144" y1="-144" y2="-144" x1="64" />
            <line x2="64" y1="-48" y2="-144" x1="64" />
        </blockdef>
        <block symbolname="or2" name="XLXI_3">
            <blockpin name="I0" />
            <blockpin signalname="XLXN_6" name="I1" />
            <blockpin signalname="output1" name="O" />
        </block>
        <block symbolname="and2" name="XLXI_4">
            <blockpin signalname="input2" name="I0" />
            <blockpin signalname="input1" name="I1" />
            <blockpin signalname="XLXN_6" name="O" />
        </block>
    </netlist>
    <sheet sheetnum="1" width="3520" height="2720">
        <instance x="1744" y="1232" name="XLXI_3" orien="R0" />
        <branch name="output1">
            <wire x2="2032" y1="1136" y2="1136" x1="2000" />
        </branch>
        <instance x="1248" y="1200" name="XLXI_4" orien="R0" />
        <branch name="XLXN_6">
            <wire x2="1744" y1="1104" y2="1104" x1="1504" />
        </branch>
        <branch name="input1">
            <wire x2="1248" y1="1072" y2="1072" x1="1216" />
        </branch>
        <branch name="input2">
            <wire x2="1248" y1="1136" y2="1136" x1="1216" />
        </branch>
        <iomarker fontsize="28" x="2032" y="1136" name="output1" orien="R0" />
        <iomarker fontsize="28" x="1216" y="1072" name="input1" orien="R180" />
        <iomarker fontsize="28" x="1216" y="1136" name="input2" orien="R180" />
    </sheet>
</drawing>