V3 4
EN work/fuction 0 \
      FL "C:/Users/qwerty/Desktop/local vhdl/lab1/function/fuction.vhf" \
      PB ieee/std_logic_1164 1381692176 PB ieee/NUMERIC_STD 1381692181 LB UNISIM \
      PH unisim/VCOMPONENTS 1381692182
AR work/fuction/BEHAVIORAL 0 \
      FL "C:/Users/qwerty/Desktop/local vhdl/lab1/function/fuction.vhf" \
      EN work/fuction 0
