<?xml version="1.0" encoding="UTF-8"?>
<symbol version="7" name="serial_tx">
    <symboltype>BLOCK</symboltype>
    <timestamp>2018-7-15T7:27:25</timestamp>
    <pin polarity="Input" x="0" y="-224" name="start" />
    <pin polarity="Input" x="0" y="-128" name="CLK" />
    <pin polarity="Input" x="0" y="-32" name="in1(7:0)" />
    <pin polarity="Output" x="384" y="-224" name="out1" />
    <pin polarity="BiDirectional" x="384" y="-160" name="in2" />
    <pin polarity="BiDirectional" x="384" y="-96" name="CLR" />
    <pin polarity="BiDirectional" x="384" y="-32" name="Q(3:0)" />
    <graph>
        <rect width="256" x="64" y="-256" height="256" />
        <attrtext style="alignment:BCENTER;fontsize:56;fontname:Arial" attrname="SymbolName" x="192" y="-264" type="symbol" />
        <attrtext style="fontsize:24;fontname:Arial" attrname="PinName" x="72" y="-224" type="pin start" />
        <line x2="0" y1="-224" y2="-224" x1="64" />
        <attrtext style="fontsize:24;fontname:Arial" attrname="PinName" x="72" y="-128" type="pin CLK" />
        <line x2="0" y1="-128" y2="-128" x1="64" />
        <attrtext style="fontsize:24;fontname:Arial" attrname="PinName" x="72" y="-32" type="pin in1(7:0)" />
        <rect width="64" x="0" y="-44" height="24" />
        <line x2="0" y1="-32" y2="-32" x1="64" />
        <attrtext style="alignment:RIGHT;fontsize:24;fontname:Arial" attrname="PinName" x="312" y="-224" type="pin out1" />
        <line x2="384" y1="-224" y2="-224" x1="320" />
        <attrtext style="alignment:RIGHT;fontsize:24;fontname:Arial" attrname="PinName" x="312" y="-160" type="pin in2" />
        <line x2="384" y1="-160" y2="-160" x1="320" />
        <attrtext style="alignment:RIGHT;fontsize:24;fontname:Arial" attrname="PinName" x="312" y="-96" type="pin CLR" />
        <line x2="384" y1="-96" y2="-96" x1="320" />
        <attrtext style="alignment:RIGHT;fontsize:24;fontname:Arial" attrname="PinName" x="312" y="-32" type="pin Q(3:0)" />
        <rect width="64" x="320" y="-44" height="24" />
        <line x2="384" y1="-32" y2="-32" x1="320" />
    </graph>
</symbol>
