
*** Running xst
    with args -ifn "serial_rx.xst" -ofn "serial_rx.srp" -intstyle ise

Reading design: serial_rx.prj

=========================================================================
*                          HDL Parsing                                  *
=========================================================================
Parsing VHDL file "G:/projects/local vhdl/lab4/lab4/serial_tx.vhd" into library work
Parsing entity <serial_tx>.
Parsing architecture <Behavioral> of entity <serial_tx>.
Parsing VHDL file "G:/projects/local vhdl/lab4/lab4/serial_rx.vhd" into library work
Parsing entity <serial_rx>.
Parsing architecture <Behavioral> of entity <serial_rx>.

=========================================================================
*                            HDL Elaboration                            *
=========================================================================

Elaborating entity <serial_rx> (architecture <Behavioral>) from library <work>.
WARNING:HDLCompiler:92 - "G:/projects/local vhdl/lab4/lab4/serial_rx.vhd" Line 100: out2 should be on the sensitivity list of the process
WARNING:HDLCompiler:92 - "G:/projects/local vhdl/lab4/lab4/serial_rx.vhd" Line 103: out2 should be on the sensitivity list of the process
WARNING:HDLCompiler:92 - "G:/projects/local vhdl/lab4/lab4/serial_rx.vhd" Line 106: out2 should be on the sensitivity list of the process
WARNING:HDLCompiler:92 - "G:/projects/local vhdl/lab4/lab4/serial_rx.vhd" Line 109: out2 should be on the sensitivity list of the process
WARNING:HDLCompiler:92 - "G:/projects/local vhdl/lab4/lab4/serial_rx.vhd" Line 112: out2 should be on the sensitivity list of the process
WARNING:HDLCompiler:92 - "G:/projects/local vhdl/lab4/lab4/serial_rx.vhd" Line 115: out2 should be on the sensitivity list of the process
WARNING:HDLCompiler:92 - "G:/projects/local vhdl/lab4/lab4/serial_rx.vhd" Line 118: out2 should be on the sensitivity list of the process
WARNING:HDLCompiler:92 - "G:/projects/local vhdl/lab4/lab4/serial_rx.vhd" Line 121: out2 should be on the sensitivity list of the process
WARNING:HDLCompiler:92 - "G:/projects/local vhdl/lab4/lab4/serial_rx.vhd" Line 124: in1 should be on the sensitivity list of the process

=========================================================================
*                           HDL Synthesis                               *
=========================================================================

Synthesizing Unit <serial_rx>.
    Related source file is "G:/projects/local vhdl/lab4/lab4/serial_rx.vhd".
    Found 4-bit register for signal <Q>.
    Found 4-bit adder for signal <COUNTER[3]_GND_6_o_add_2_OUT> created at line 77.
WARNING:Xst:737 - Found 1-bit latch for signal <out1<7>>. Latches may be generated from incomplete case or if statements. We do not recommend the use of latches in FPGA/CPLD designs, as they may lead to timing problems.
WARNING:Xst:737 - Found 1-bit latch for signal <out1<6>>. Latches may be generated from incomplete case or if statements. We do not recommend the use of latches in FPGA/CPLD designs, as they may lead to timing problems.
WARNING:Xst:737 - Found 1-bit latch for signal <out1<5>>. Latches may be generated from incomplete case or if statements. We do not recommend the use of latches in FPGA/CPLD designs, as they may lead to timing problems.
WARNING:Xst:737 - Found 1-bit latch for signal <out1<4>>. Latches may be generated from incomplete case or if statements. We do not recommend the use of latches in FPGA/CPLD designs, as they may lead to timing problems.
WARNING:Xst:737 - Found 1-bit latch for signal <out1<3>>. Latches may be generated from incomplete case or if statements. We do not recommend the use of latches in FPGA/CPLD designs, as they may lead to timing problems.
WARNING:Xst:737 - Found 1-bit latch for signal <out1<2>>. Latches may be generated from incomplete case or if statements. We do not recommend the use of latches in FPGA/CPLD designs, as they may lead to timing problems.
WARNING:Xst:737 - Found 1-bit latch for signal <out1<1>>. Latches may be generated from incomplete case or if statements. We do not recommend the use of latches in FPGA/CPLD designs, as they may lead to timing problems.
WARNING:Xst:737 - Found 1-bit latch for signal <out1<0>>. Latches may be generated from incomplete case or if statements. We do not recommend the use of latches in FPGA/CPLD designs, as they may lead to timing problems.
WARNING:Xst:737 - Found 1-bit latch for signal <error>. Latches may be generated from incomplete case or if statements. We do not recommend the use of latches in FPGA/CPLD designs, as they may lead to timing problems.
WARNING:Xst:737 - Found 1-bit latch for signal <clrs>. Latches may be generated from incomplete case or if statements. We do not recommend the use of latches in FPGA/CPLD designs, as they may lead to timing problems.
    Summary:
	inferred   1 Adder/Subtractor(s).
	inferred   4 D-type flip-flop(s).
	inferred  10 Latch(s).
Unit <serial_rx> synthesized.

=========================================================================
HDL Synthesis Report

Macro Statistics
# Adders/Subtractors                                   : 1
 4-bit adder                                           : 1
# Registers                                            : 1
 4-bit register                                        : 1
# Latches                                              : 10
 1-bit latch                                           : 10

=========================================================================

=========================================================================
*                       Advanced HDL Synthesis                          *
=========================================================================


Synthesizing (advanced) Unit <serial_rx>.
The following registers are absorbed into counter <COUNTER>: 1 register on signal <COUNTER>.
Unit <serial_rx> synthesized (advanced).

=========================================================================
Advanced HDL Synthesis Report

Macro Statistics
# Counters                                             : 1
 4-bit up counter                                      : 1

=========================================================================

=========================================================================
*                         Low Level Synthesis                           *
=========================================================================
WARNING:Xst:1293 - FF/Latch <error> has a constant value of 0 in block <serial_rx>. This FF/Latch will be trimmed during the optimization process.
WARNING:Xst:3002 - This design contains one or more registers/latches that are directly
   incompatible with the Spartan6 architecture. The two primary causes of this is
   either a register or latch described with both an asynchronous set and
   asynchronous reset, or a register or latch described with an asynchronous
   set or reset which however has an initialization value of the opposite 
   polarity (i.e. asynchronous reset with an initialization value of 1).
    While this circuit can be built, it creates a sub-optimal implementation
   in terms of area, power and performance. For a more optimal implementation
   Xilinx highly recommends one of the following:

          1) Remove either the set or reset from all registers and latches
             if not needed for required functionality
          2) Modify the code in order to produce a synchronous set
             and/or reset (both is preferred)
          3) Ensure all registers have the same initialization value as the
             described asynchronous set or reset polarity
          4) Use the -async_to_sync option to transform the asynchronous
             set/reset to synchronous operation
             (timing simulation highly recommended when using this option)

  Please refer to http://www.xilinx.com search string "Spartan6 asynchronous set/reset" for more details.

  List of register instances with asynchronous set and reset:
    clrs in unit <serial_rx>


Optimizing unit <serial_rx> ...

Mapping all equations...
Building and optimizing final netlist ...
Found area constraint ratio of 100 (+ 0) on block serial_rx, actual ratio is 0.
Latch clrs has been replicated 1 time(s) to handle iob=true attribute.

Final Macro Processing ...

=========================================================================
Final Register Report

Macro Statistics
# Registers                                            : 4
 Flip-Flops                                            : 4

=========================================================================

=========================================================================
*                           Partition Report                            *
=========================================================================

Partition Implementation Status
-------------------------------

  No Partitions were found in this design.

-------------------------------

=========================================================================
*                            Design Summary                             *
=========================================================================

Clock Information:
------------------
----------------------------------------------------------------+------------------------+-------+
Clock Signal                                                    | Clock buffer(FF name)  | Load  |
----------------------------------------------------------------+------------------------+-------+
COUNTER[3]_PWR_6_o_equal_13_o(COUNTER[3]_PWR_6_o_equal_13_o1:O) | NONE(*)(out1_7)        | 1     |
COUNTER[3]_GND_6_o_equal_10_o(COUNTER[3]_GND_6_o_equal_10_o1:O) | NONE(*)(out1_4)        | 1     |
COUNTER[3]_PWR_6_o_equal_12_o(COUNTER[3]_PWR_6_o_equal_12_o1:O) | NONE(*)(out1_6)        | 1     |
COUNTER[3]_GND_6_o_equal_11_o(COUNTER[3]_GND_6_o_equal_11_o1:O) | NONE(*)(out1_5)        | 1     |
COUNTER[3]_GND_6_o_equal_7_o(COUNTER[3]_GND_6_o_equal_7_o1:O)   | NONE(*)(out1_1)        | 1     |
COUNTER[3]_GND_6_o_equal_9_o(COUNTER[3]_GND_6_o_equal_9_o1:O)   | NONE(*)(out1_3)        | 1     |
COUNTER[3]_GND_6_o_equal_8_o(COUNTER[3]_GND_6_o_equal_8_o<3>1:O)| NONE(*)(out1_2)        | 1     |
COUNTER[3]_GND_6_o_equal_6_o(COUNTER[3]_GND_6_o_equal_6_o1:O)   | NONE(*)(out1_0)        | 1     |
clk                                                             | BUFGP                  | 4     |
clrs_G(clrs_G:O)                                                | NONE(*)(clrs)          | 2     |
----------------------------------------------------------------+------------------------+-------+
(*) These 9 clock signal(s) are generated by combinatorial logic,
and XST is not able to identify which are the primary clock signals.
Please use the CLOCK_SIGNAL constraint to specify the clock signal(s) generated by combinatorial logic.
INFO:Xst:2169 - HDL ADVISOR - Some clock signals were not automatically buffered by XST with BUFG/BUFR resources. Please use the buffer_type constraint in order to insert these buffers to the clock signals to help prevent skew problems.

Asynchronous Control Signals Information:
----------------------------------------
No asynchronous control signals found in this design

Timing Summary:
---------------
Speed Grade: -3

   Minimum period: 1.981ns (Maximum Frequency: 504.821MHz)
   Minimum input arrival time before clock: 2.635ns
   Maximum output required time after clock: 4.022ns
   Maximum combinational path delay: 4.621ns

=========================================================================
